5 Descriptive Statistics – Biostatistics and Data Analysis for Zoologists
…
5  Descriptive Statistics

5.1 Dataset Use for Illustrations

# A tibble: 333 × 9
   species island    bill_length_mm bill_depth_mm flipper_length_mm body_mass_g
   <fct>   <fct>              <dbl>         <dbl>             <int>       <int>
 1 Adelie  Torgersen           39.1          18.7               181        3750
 2 Adelie  Torgersen           39.5          17.4               186        3800
 3 Adelie  Torgersen           40.3          18                 195        3250
 4 Adelie  Torgersen           36.7          19.3               193        3450
 5 Adelie  Torgersen           39.3          20.6               190        3650
 6 Adelie  Torgersen           38.9          17.8               181        3625
 7 Adelie  Torgersen           39.2          19.6               195        4675
 8 Adelie  Torgersen           41.1          17.6               182        3200
 9 Adelie  Torgersen           38.6          21.2               191        3800
10 Adelie  Torgersen           34.6          21.1               198        4400
# ℹ 323 more rows
# ℹ 3 more variables: gender <fct>, year <int>, BMI_category <chr>

5.2 Qualitative data: Univariate Analysis

Chart types we can use: Pie chart, Bar chart

Tables: Tables with counts and percentages

Extract qualitative variables

# A tibble: 333 × 4
   species island    gender BMI_category
   <fct>   <fct>     <fct>  <chr>       
 1 Adelie  Torgersen male   Normal      
 2 Adelie  Torgersen female Normal      
 3 Adelie  Torgersen female Underweight 
 4 Adelie  Torgersen female Normal      
 5 Adelie  Torgersen male   Normal      
 6 Adelie  Torgersen female Normal      
 7 Adelie  Torgersen male   Overweight  
 8 Adelie  Torgersen female Underweight 
 9 Adelie  Torgersen male   Normal      
10 Adelie  Torgersen male   Overweight  
# ℹ 323 more rows
…
